Drill report for switches.kicad_pcb
Created on Пн 27 июн 2022 08:44:20

Copper Layer Stackup:
    =============================================================
    L1 :  F.Cu                      front
    L2 :  B.Cu                      back


Drill file 'switches.drl' contains
    plated through holes:
    =============================================================
    T1  0,400mm  0,0157"  (41 holes)
    T2  0,450mm  0,0177"  (2 holes)  (with 2 slots)
    T3  1,000mm  0,0394"  (26 holes)
    T4  1,020mm  0,0402"  (6 holes)
    T5  1,300mm  0,0512"  (2 holes)

    Total plated holes count 77


Not plated through holes are merged with plated holes
    unplated through holes:
    =============================================================

    Total unplated holes count 0
